…
  mutate(
    Evaluacion_Normalidad = ifelse(
      is.na(P_Value), 
      "No se pudo determinar (datos insuficientes o N > 5000 para Shapiro)", 
      ifelse(
        P_Value >= 0.05, 
        "Presenta Normalidad (p >= 0.05)", 
        "No Presenta Normalidad (p < 0.05)"
      )
    )
  )
print(resultados_evaluacion_normalidad)
```

    ## # A tibble: 36 × 7
    ##    TORNEO     YEAR Variable_Testeada N_Observaciones W_Statistic   P_Value
    ##    <fct>     <dbl> <chr>                       <int>       <dbl>     <dbl>
    ##  1 EURO COPA  2020 GOL_GAN                        14       0.931 0.312    
    ##  2 EURO COPA  2020 GOL_PERD                        9       0.987 0.990    
    ##  3 EURO COPA  2020 TOTAL_GN                       14       0.809 0.00646  
    ##  4 EURO COPA  2020 goles_p1                       14       0.616 0.0000565
    ##  5 EURO COPA  2020 goles_p2                       14       0.576 0.0000250
    ##  6 EURO COPA  2020 goles_p3                       14       0.679 0.000225 
    ##  7 EURO COPA  2020 goles_p4                       14       0.735 0.000878 
    ##  8 EURO COPA  2020 goles_p5                       14       0.576 0.0000250
    ##  9 EURO COPA  2020 goles_p6                       14       0.740 0.000984 
    ## 10 EURO COPA  2024 GOL_GAN                        13       0.955 0.680    
    ## # ℹ 26 more rows
    ## # ℹ 1 more variable: Evaluacion_Normalidad <chr>
…
